100	1	1	|
100	1	2	 
100	1	3	C
100	1	4	H
100	1	5	A
100	1	6	P
100	1	7	T
100	1	8	E
100	1	9	R
100	1	10	 
100	1	11	2
100	1	12	 
100	1	13	|
100	2	1	W
100	2	2	e
100	2	3	 
100	2	4	h
100	2	5	a
100	2	6	v
100	2	7	e
100	2	8	 
100	2	9	j
100	2	10	u
100	2	11	s
100	2	12	t
100	2	13	 
100	2	14	s
100	2	15	e
100	2	16	e
